module gitlab.com/souzagustavo/client-server-api/server

go 1.20

require (
	github.com/glebarez/sqlite v1.9.0
	gorm.io/gorm v1.25.2
)

require (
	github.com/dustin/go-humanize v1.0.1 // indirect
	github.com/glebarez/go-sqlite v1.21.2 // indirect
	github.com/google/uuid v1.3.0 // indirect
	github.com/jinzhu/inflection v1.0.0 // indirect
	github.com/jinzhu/now v1.1.5 // indirect
	github.com/mattn/go-isatty v0.0.17 // indirect
	github.com/remyoudompheng/bigfft v0.0.0-20230129092748-24d4a6f8daec // indirect
	golang.org/x/sys v0.7.0 // indirect
	modernc.org/libc v1.22.5 // indirect
	modernc.org/mathutil v1.5.0 // indirect
	modernc.org/memory v1.5.0 // indirect
	modernc.org/sqlite v1.23.1 // indirect
)
